{
  "files": {
    "main.css": "/static/css/main.0783e291.chunk.css",
    "main.js": "/static/js/main.a7a627e9.chunk.js",
    "main.js.map": "/static/js/main.a7a627e9.chunk.js.map",
    "runtime-main.js": "/static/js/runtime-main.f1078ef9.js",
    "runtime-main.js.map": "/static/js/runtime-main.f1078ef9.js.map",
    "static/css/2.1a02f21c.chunk.css": "/static/css/2.1a02f21c.chunk.css",
    "static/js/2.cdffebe5.chunk.js": "/static/js/2.cdffebe5.chunk.js",
    "static/js/2.cdffebe5.chunk.js.map": "/static/js/2.cdffebe5.chunk.js.map",
    "static/js/3.860732e2.chunk.js": "/static/js/3.860732e2.chunk.js",
    "static/js/3.860732e2.chunk.js.map": "/static/js/3.860732e2.chunk.js.map",
    "index.html": "/index.html",
    "static/css/2.1a02f21c.chunk.css.map": "/static/css/2.1a02f21c.chunk.css.map",
    "static/css/main.0783e291.chunk.css.map": "/static/css/main.0783e291.chunk.css.map",
    "static/js/2.cdffebe5.chunk.js.LICENSE.txt": "/static/js/2.cdffebe5.chunk.js.LICENSE.txt"
  },
  "entrypoints": [
    "static/js/runtime-main.f1078ef9.js",
    "static/css/2.1a02f21c.chunk.css",
    "static/js/2.cdffebe5.chunk.js",
    "static/css/main.0783e291.chunk.css",
    "static/js/main.a7a627e9.chunk.js"
  ]
}